\relax 
\providecommand\hyper@newdestlabel[2]{}
\catcode `"\active 
\providecommand\HyperFirstAtBeginDocument{\AtBeginDocument}
\HyperFirstAtBeginDocument{\ifx\hyper@anchor\@undefined
\global\let\oldcontentsline\contentsline
\gdef\contentsline#1#2#3#4{\oldcontentsline{#1}{#2}{#3}}
\global\let\oldnewlabel\newlabel
\gdef\newlabel#1#2{\newlabelxx{#1}#2}
\gdef\newlabelxx#1#2#3#4#5#6{\oldnewlabel{#1}{{#2}{#3}}}
\AtEndDocument{\ifx\hyper@anchor\@undefined
\let\contentsline\oldcontentsline
\let\newlabel\oldnewlabel
\fi}
\fi}
\global\let\hyper@last\relax 
\gdef\HyperFirstAtBeginDocument#1{#1}
\providecommand\HyField@AuxAddToFields[1]{}
\providecommand\HyField@AuxAddToCoFields[2]{}
\select@language{brazil}
\@writefile{toc}{\select@language{brazil}}
\@writefile{lof}{\select@language{brazil}}
\@writefile{lot}{\select@language{brazil}}
\@writefile{toc}{\contentsline {section}{\numberline {1}Implementa\IeC {\c c}\IeC {\~a}o de JAEDsMaps}{2}{section.1}}
\@writefile{toc}{\contentsline {section}{\numberline {2}Resultados}{3}{section.2}}
\@writefile{lof}{\contentsline {figure}{\numberline {1}{\ignorespaces primeiro grafo de teste}}{4}{figure.1}}
\newlabel{fig:grafo1}{{1}{4}{primeiro grafo de teste}{figure.1}{}}
\@writefile{lof}{\contentsline {figure}{\numberline {2}{\ignorespaces segundo grafo de teste}}{4}{figure.2}}
\newlabel{fig:grafo2}{{2}{4}{segundo grafo de teste}{figure.2}{}}
